time	sinusoidal	sinusoidal'	cosinusoidal	-cosinusoidal'	abs(sinusoidal+cosinusoidal')
0.1	na	na	na	na	na
0.2	na	na	na	na	na
0.3	na	na	na	na	na
0.4	na	na	na	na	na
0.5	na	na	na	na	na
0.6	0.531515	0.776471	0.789072	0.635754	0.104239
0.7	0.622671	0.896277	0.745341	0.584768	0.0379026
0.8	0.694831	0.61013	0.68323	0.739413	0.0445825
0.9	0.763542	0.572402	0.605846	0.72399	0.0395527
1	0.81623	0.334417	0.515499	0.816601	0.000371872
1.1	0.841954	0.254723	0.427291	0.919625	0.0776705
1.2	0.875541	0.250246	0.356918	0.864476	0.0110659
1.3	0.904026	0.0988815	0.268097	0.960482	0.0564562
1.4	0.91069	0.12931	0.167563	0.922034	0.0113436
1.5	0.931576	0.140642	0.0883349	0.84459	0.086986
1.6	0.947502	0.217031	-0.00213909	0.792957	0.154544
1.7	0.955873	0.0850813	-0.0804462	0.822986	0.132887
1.8	0.962255	-0.00296702	-0.175648	0.989958	0.0277037
1.9	0.945207	-0.189334	-0.263994	0.875089	0.0701178
2	0.909338	-0.50272	-0.347166	0.857401	0.0519373
2.1	0.883045	-0.566323	-0.446395	1.03804	0.154997
2.2	0.832966	-0.615184	-0.528713	0.830378	0.00258788
2.3	0.768998	-0.619146	-0.624968	0.873513	0.104515
2.4	0.681831	-0.840985	-0.693914	0.669053	0.0127774
2.5	0.598054	-0.861523	-0.75007	0.550407	0.0476466
2.6	0.506497	-1.0464	-0.822131	0.505028	0.00146884
2.7	0.428475	-1.05188	-0.876301	0.431526	0.00305108
2.8	0.331544	-0.936849	-0.898234	0.29989	0.0316542
2.9	0.23772	-0.792565	-0.93371	0.211563	0.0261569
3	0.146866	-0.709437	-0.957914	0.268958	0.122091
3.1	0.0703731	-0.75475	-0.987551	0.194628	0.124255
3.2	-0.0293536	-0.980191	-0.982986	-0.0998272	0.0704736
3.3	-0.116484	-1.11149	-0.957116	-0.29822	0.181736
3.4	-0.222522	-1.18752	-0.928397	-0.455589	0.233067
3.5	-0.326015	-1.12659	-0.905463	-0.536408	0.210393
3.6	na	na	na	na	na
3.7	na	na	na	na	na
3.8	na	na	na	na	na
3.9	na	na	na	na	na
4	na	na	na	na	na
# data collated by DataMerge using the command:
#datamerge -f --bandwidth 0.8 -r example/multicolum.tsv time_orig time_orig -i example/multicolum.tsv time_leastsquares{loess} 'time_leastsquares sinusoidal cosinusoidal' -o example/loess_derivation.tsv time 'sinusoidal sinusoidal' cosinusoidal -cosinusoidal_derivative abs(sinusoidal+cosinusoidal')' 
