phase	sin(phase)+r__1/(MAX*SNR)	cos(phase)+r__0/(MAX*SNR)	r__0	r__1	r__2	r__3	r__4	r__0/MAX	r__1/MAX	r__2/MAX	r__3/MAX	r__4/MAX	r__5-r__9	r__6-r__8	r__7-r__7	r__8-r__6	r__9-r__5
0.1	0.0147077	1.0836	14515	-13947	-9374	11416	-4465	0.442963	-0.425629	-0.286072	0.348389	-0.136261	6873	-11034	0	11034	-6873
0.2	0.240448	0.961286	-3077	6845	12574	-15978	1076	-0.0939026	0.208893	0.383728	-0.48761	0.0328369	3872	10402	0	-10402	-3872
0.3	0.327783	0.950661	-766	5286	-6467	5837	11499	-0.0233765	0.161316	-0.197357	0.178131	0.350922	-3875	10792	0	-10792	3875
0.4	0.291585	0.82169	-16281	-16029	-4886	8031	-9717	-0.496857	-0.489166	-0.149109	0.245087	-0.296539	18155	1240	0	-1240	-18155
0.5	0.493537	0.915479	6209	2312	13236	-246	-762	0.189484	0.0705566	0.403931	-0.00750732	-0.0232544	17977	-26344	0	26344	-17977
0.6	0.466211	0.861035	5849	-16127	-12378	13286	6628	0.178497	-0.492157	-0.377747	0.405457	0.202271	183	10570	0	-10570	-183
0.7	0.71923	0.760106	-776	12290	4128	-15300	2412	-0.0236816	0.375061	0.125977	-0.466919	0.0736084	-8349	1393	0	-1393	8349
0.8	0.762455	0.645095	-8456	7389	-4325	-10128	-11737	-0.258057	0.225494	-0.131989	-0.309082	-0.358185	-17699	-7639	0	7639	17699
0.9	0.684657	0.562851	-9627	-16166	-6225	-4180	-11041	-0.293793	-0.493347	-0.189972	-0.127563	-0.336945	-5593	-14018	0	14018	5593
1	0.921317	0.609162	11282	13082	-6921	3630	2453	0.344299	0.399231	-0.211212	0.110779	0.0748596	-10122	2267	0	-2267	10122
1.1	0.824752	0.401081	-8604	-10888	-16156	-9821	7421	-0.262573	-0.332275	-0.493042	-0.299713	0.226471	14398	14966	0	-14966	-14398
1.2	0.930098	0.413932	8450	-318	-7657	7076	-2197	0.257874	-0.00970459	-0.233673	0.215942	-0.0670471	-10461	10056	0	-10056	10461
1.3	0.881789	0.22384	-7153	-13397	9332	-11360	4819	-0.218292	-0.408844	0.28479	-0.34668	0.147064	-8798	4493	0	-4493	8798
1.4	0.888617	0.120278	-8141	-15865	-7310	16107	-4994	-0.248444	-0.484161	-0.223083	0.491547	-0.152405	6442	16480	0	-16480	-6442
1.5	0.960868	0.143381	11902	-6001	-10140	4578	14497	0.36322	-0.183136	-0.309448	0.139709	0.442413	6389	9793	0	-9793	-6389
1.6	0.95337	0.00407684	5452	-7570	-12635	-2935	-1487	0.166382	-0.231018	-0.38559	-0.0895691	-0.0453796	-5648	11175	0	-11175	5648
1.7	0.927462	-0.136669	-1282	-10519	-3640	10626	-1102	-0.0391235	-0.321014	-0.111084	0.32428	-0.0336304	-5443	-11064	0	11064	5443
1.8	0.989936	-0.131969	15603	2636	12978	-5160	14847	0.476166	0.0804443	0.396057	-0.157471	0.453094	5806	8125	0	-8125	-5806
1.9	1.02456	-0.246446	12590	12822	14098	4883	-8912	0.384216	0.391296	0.430237	0.149017	-0.271973	-591	-11824	0	11824	591
2	0.941506	-0.32789	14460	5277	-9197	3267	4842	0.441284	0.161041	-0.28067	0.0997009	0.147766	-6664	-23793	0	23793	6664
2.1	0.944179	-0.515863	-1805	13266	-12849	-6103	11485	-0.0550842	0.404846	-0.39212	-0.186249	0.350494	-18913	6191	0	-6191	18913
2.2	0.828711	-0.498645	14722	3312	-7085	-5274	14978	0.44928	0.101074	-0.216217	-0.16095	0.457092	-27431	-850	0	850	27431
2.3	0.680605	-0.59279	12040	-10666	11321	9453	-1945	0.367432	-0.3255	0.34549	0.288483	-0.0593567	-6047	14358	0	-14358	6047
2.4	0.746032	-0.800895	-10404	11562	11149	-8134	-1289	-0.317505	0.352844	0.34024	-0.24823	-0.0393372	-6765	-11932	0	11932	6765
2.5	0.659379	-0.714834	14141	9979	2770	5251	10724	0.431549	0.304535	0.0845337	0.160248	0.327271	-21984	-9639	0	9639	21984
2.6	0.581663	-0.914359	-9416	10840	15530	-6038	-1252	-0.287354	0.330811	0.473938	-0.184265	-0.038208	-9700	6347	0	-6347	9700
2.7	0.354626	-0.835987	11155	-11920	10907	9925	-6131	0.340424	-0.36377	0.332855	0.302887	-0.187103	5869	-19987	0	19987	-5869
2.8	0.326645	-0.871904	11521	-1367	2958	10173	-12826	0.351593	-0.0417175	0.090271	0.310455	-0.391418	744	1306	0	-1306	-744
2.9	0.154996	-0.997362	-4326	-13804	-5987	-14630	-15129	-0.132019	-0.421265	-0.182709	-0.446472	-0.4617	3256	13599	0	-13599	-3256
3	0.165705	-1.00863	-3054	4028	-6796	-13838	-11966	-0.0932007	0.122925	-0.207397	-0.422302	-0.365173	13347	10471	0	-10471	-13347
3.1	0.0873326	-0.930934	11174	7496	-6218	-3342	10087	0.341003	0.22876	-0.189758	-0.10199	0.307831	25904	-9966	0	9966	-25904
3.2	0.0222716	-0.993986	706	13213	3149	-3526	-925	0.0215454	0.403229	0.0960999	-0.107605	-0.0282288	-7209	-3341	0	3341	7209
3.3	-0.078815	-1.0461	-9604	12932	-10773	-13034	13160	-0.293091	0.394653	-0.328766	-0.397766	0.401611	-10120	3209	0	-3209	10120
3.4	-0.173992	-1.04476	-12773	13361	9013	13867	12306	-0.389801	0.407745	0.275055	0.423187	0.375549	-5593	8124	0	-8124	5593
3.5	-0.402785	-0.874201	10200	-8520	15149	-13331	-3236	0.311279	-0.26001	0.462311	-0.40683	-0.0987549	15629	-8832	0	8832	-15629
3.6	-0.450998	-0.802941	15371	-1389	819	-11889	15780	0.469086	-0.0423889	0.0249939	-0.362823	0.481567	-8560	31318	0	-31318	8560
3.7	-0.579012	-0.763524	13857	-8057	-6112	-14877	-11965	0.422882	-0.24588	-0.186523	-0.45401	-0.365143	5270	185	0	-185	-5270
3.8	-0.624205	-0.778474	2047	-2023	-14026	-2915	-16226	0.0624695	-0.0617371	-0.42804	-0.0889587	-0.495178	6495	-9306	0	9306	-6495
3.9	-0.668406	-0.73131	-881	3172	-6274	4176	-1446	-0.026886	0.0968018	-0.191467	0.127441	-0.0441284	9769	27095	0	-27095	-9769
4	-0.831607	-0.73089	-12656	-12256	5950	11327	1565	-0.38623	-0.374023	0.18158	0.345673	0.04776	20799	8720	0	-8720	-20799
# data collated by DataMerge using the command:
#datamerge -f --constant MAX 32768. --constant SNR 5. -r example/dataset_random.tsv 'line*0.1' 'line r[10]' -o example/multicolum.tsv phase 'sin(phase)+r__1/(MAX*SNR) cos(phase)+r__0/(MAX*SNR) r[5] r[0:4]/MAX r[5:9]-r[9:5:-1]' 
