time	(sinusoidal_plus-sinusoidal_minus)/(time_plus-time_minus)	(exponential_plus-exponential_minus)/(time_plus-time_minus)
1.5	0.0624603	0.01015
4.5	0.060248	0.0104633
7.5	0.0559007	0.0107767
10.5	0.0495733	0.01111
13.5	0.04149	0.0114433
16.5	0.0319367	0.0117967
19.5	0.021252	0.0121533
22.5	0.00981467	0.0125233
25.5	-0.00197067	0.0129033
28.5	-0.013686	0.0133
31.5	-0.0249167	0.0137033
34.5	-0.0352647	0.01412
37.5	-0.044363	0.01455
# data collated by DataMerge using the command:
#datamerge -f --constant dt 3 -r example/dataset_sampling_3.tsv time_plus-dt/2 '# time_plus>0 sinusoidal_plus exponential_plus' -i example/dataset_sampling_3.tsv time_minus+dt/2 '# time_minus sinusoidal_minus exponential_minus' -o example/dataset_finite_diff_filtered.tsv time '(sinusoidal_plus-sinusoidal_minus)/(time_plus-time_minus) (exponential_plus-exponential_minus)/(time_plus-time_minus)' 
