n	s__+	s	s-n*(n-1)/2	factorial__+	factorial	1-sqrt(2*pi*n)*(n/exp(1))^n/factorial
1	1	0	0	2	1	0.077863
2	3	1	0	6	2	0.0404978
3	6	3	0	24	6	0.0272984
4	10	6	0	120	24	0.020576
5	15	10	0	720	120	0.0165069
6	21	15	0	5040	720	0.0137803
7	28	21	0	40320	5040	0.0118262
8	36	28	0	362880	40320	0.0103573
9	45	36	0	3.6288e+06	362880	0.00921276
10	55	45	0	3.99168e+07	3.6288e+06	0.00829596
11	66	55	0	4.79002e+08	3.99168e+07	0.00754507
12	78	66	0	6.22702e+09	4.79002e+08	0.00691879
13	91	78	0	8.71783e+10	6.22702e+09	0.0063885
14	105	91	0	1.30767e+12	8.71783e+10	0.0059337
# data collated by DataMerge using the command:
#datamerge -f --constant pi 3.14159265 -r example/dataset_sampling_3.tsv N N -o example/dataset_cumulate.tsv n 's+=n s s-n*(n-1)/2 factorial*=(n+1) factorial 1-sqrt(2*pi*n)*(n/exp(1))^n/factorial' 
